<svg width="61" height="61" viewBox="0 0 61 61" fill="none" xmlns="http://www.w3.org/2000/svg">
<rect x="1" y="1" width="59" height="59" fill="white" stroke="black" stroke-width="2"/>
<path d="M37.512 32.064V30.44C37.512 25.932 34.768 23.244 30.596 23.244C26.284 23.244 23.232 26.1 23.232 30.776C23.232 35.424 26.284 38.308 30.708 38.308C34.096 38.308 36.868 36.348 37.372 33.604L33.256 33.408C32.948 34.416 32.024 35.004 30.596 35.004C28.748 35.004 27.656 33.856 27.572 32.064H37.512ZM30.568 26.436C32.416 26.436 33.312 27.584 33.396 29.348H27.572C27.684 27.5 28.832 26.436 30.568 26.436Z" fill="black"/>
</svg>
